<?xml version="1.0" encoding="UTF-8"?>
<!DOCTYPE svg PUBLIC "-//W3C//DTD SVG 1.1//EN" "http://www.w3.org/Graphics/SVG/1.1/DTD/svg11.dtd">
<!-- Creator: CorelDRAW X6 -->
<svg xmlns="http://www.w3.org/2000/svg" xml:space="preserve" width="1200px" height="848px" version="1.1" style="shape-rendering:geometricPrecision; text-rendering:geometricPrecision; image-rendering:optimizeQuality; fill-rule:evenodd; clip-rule:evenodd"
viewBox="0 0 1200 848"
 xmlns:xlink="http://www.w3.org/1999/xlink">
 <defs>
  <style type="text/css">
   <![CDATA[
    .str0 {stroke:#373435;stroke-width:0.808081}
    .fil0 {fill:none}
    .fil4 {fill:#373435}
    .fil1 {fill:#D2D3D5}
    .fil3 {fill:#FEFEFE}
    .fil2 {fill:purple}
    .fnt2 {font-weight:bold;font-size:17.1042;font-family:'Arial'}
    .fnt0 {font-weight:bold;font-size:22.8057;font-family:'Arial'}
    .fnt1 {font-weight:normal;font-size:25.6566;font-family:'Arial'}
    .fnt3 {font-weight:normal;font-size:34.2089;font-family:'Arial'}
    .fnt4 {font-weight:bold;font-size:34.2089;font-family:'Arial'}
   ]]>
  </style>
 </defs>
 <g id="Layer_x0020_1">
  <metadata id="CorelCorpID_0Corel-Layer"/>
  <rect class="fil0" x="1" y="2" width="994" height="780"/>
  <rect class="fil1" x="80" y="72" width="40" height="402"/>
  <rect class="fil2" x="80" y="518" width="644" height="35"/>
  <text x="338" y="543"  class="fil3 fnt0">BLOCO 107</text>
  <text x="92" y="98"  class="fil4 fnt1">A</text>
  <text x="92" y="135"  class="fil4 fnt1">B</text>
  <text x="91" y="172"  class="fil4 fnt1">C</text>
  <text x="91" y="209"  class="fil4 fnt1">D</text>
  <text x="92" y="246"  class="fil4 fnt1">E</text>
  <text x="92" y="283"  class="fil4 fnt1">F</text>
  <text x="90" y="320"  class="fil4 fnt1">G</text>
  <text x="91" y="357"  class="fil4 fnt1">H</text>
  <text x="97" y="394"  class="fil4 fnt1">I</text>
  <text x="94" y="431"  class="fil4 fnt1">J</text>
  <text x="92" y="468"  class="fil4 fnt1">K</text>
  <text x="281" y="505"  class="fil4 fnt0">PAREDE DIVISÃO DE VIDRO</text>
  <g id="_663260960">
   <circle class="fil3 str0" cx="172" cy="347" r="12"/>
   <text x="164" y="354"  class="fil4 fnt2">18</text>
  </g>
  <g id="_499352872">
   <circle class="fil3 str0" cx="172" cy="384" r="12"/>
   <text x="164" y="391"  class="fil4 fnt2">18</text>
  </g>
  <g id="_499352176">
   <circle class="fil3 str0" cx="172" cy="421" r="12"/>
   <text x="164" y="428"  class="fil4 fnt2">18</text>
  </g>
  <g id="_499351480">
   <circle class="fil3 str0" cx="172" cy="458" r="12"/>
   <text x="164" y="465"  class="fil4 fnt2">18</text>
  </g>
  <g id="_499350784">
   <circle class="fil3 str0" cx="203" cy="237" r="12"/>
   <text x="195" y="244"  class="fil4 fnt2">17</text>
  </g>
  <g id="_499350088">
   <circle class="fil3 str0" cx="203" cy="273" r="12"/>
   <text x="195" y="280"  class="fil4 fnt2">17</text>
  </g>
  <g id="_499349392">
   <circle class="fil3 str0" cx="203" cy="310" r="12"/>
   <text x="195" y="317"  class="fil4 fnt2">17</text>
  </g>
  <g id="_499348696">
   <circle class="fil3 str0" cx="203" cy="347" r="12"/>
   <text x="195" y="354"  class="fil4 fnt2">17</text>
  </g>
  <g id="_499348000">
   <circle class="fil3 str0" cx="203" cy="384" r="12"/>
   <text x="195" y="391"  class="fil4 fnt2">17</text>
  </g>
  <g id="_499347304">
   <circle class="fil3 str0" cx="203" cy="421" r="12"/>
   <text x="195" y="428"  class="fil4 fnt2">17</text>
  </g>
  <g id="_499346608">
   <circle class="fil3 str0" cx="203" cy="458" r="12"/>
   <text x="195" y="465"  class="fil4 fnt2">17</text>
  </g>
  <g id="_499345912">
   <circle class="fil3 str0" cx="234" cy="237" r="12"/>
   <text x="226" y="243"  class="fil4 fnt2">16</text>
  </g>
  <g id="_499345216">
   <circle class="fil3 str0" cx="234" cy="273" r="12"/>
   <text x="226" y="280"  class="fil4 fnt2">16</text>
  </g>
  <g id="_499344520">
   <circle class="fil3 str0" cx="234" cy="310" r="12"/>
   <text x="226" y="317"  class="fil4 fnt2">16</text>
  </g>
  <g id="_499343824">
   <circle class="fil3 str0" cx="234" cy="347" r="12"/>
   <text x="226" y="354"  class="fil4 fnt2">16</text>
  </g>
  <g id="_499343128">
   <circle class="fil3 str0" cx="234" cy="384" r="12"/>
   <text x="226" y="391"  class="fil4 fnt2">16</text>
  </g>
  <g id="_499342432">
   <circle class="fil3 str0" cx="234" cy="421" r="12"/>
   <text x="226" y="428"  class="fil4 fnt2">16</text>
  </g>
  <g id="_499341736">
   <circle class="fil3 str0" cx="234" cy="458" r="12"/>
   <text x="226" y="464"  class="fil4 fnt2">16</text>
  </g>
  <g id="_499341040">
   <circle class="fil3 str0" cx="265" cy="237" r="12"/>
   <text x="257" y="244"  class="fil4 fnt2">15</text>
  </g>
  <g id="_499340344">
   <circle class="fil3 str0" cx="265" cy="273" r="12"/>
   <text x="257" y="280"  class="fil4 fnt2">15</text>
  </g>
  <g id="_499339648">
   <circle class="fil3 str0" cx="265" cy="310" r="12"/>
   <text x="257" y="317"  class="fil4 fnt2">15</text>
  </g>
  <g id="_499338952">
   <circle class="fil3 str0" cx="265" cy="347" r="12"/>
   <text x="257" y="354"  class="fil4 fnt2">15</text>
  </g>
  <g id="_499338256">
   <circle class="fil3 str0" cx="265" cy="384" r="12"/>
   <text x="257" y="391"  class="fil4 fnt2">15</text>
  </g>
  <g id="_499337560">
   <circle class="fil3 str0" cx="265" cy="421" r="12"/>
   <text x="257" y="428"  class="fil4 fnt2">15</text>
  </g>
  <g id="_499336864">
   <circle class="fil3 str0" cx="265" cy="458" r="12"/>
   <text x="257" y="465"  class="fil4 fnt2">15</text>
  </g>
  <g id="_499336168">
   <circle class="fil3 str0" cx="296" cy="237" r="12"/>
   <text x="288" y="243"  class="fil4 fnt2">14</text>
  </g>
  <g id="_499335472">
   <circle class="fil3 str0" cx="296" cy="273" r="12"/>
   <text x="288" y="280"  class="fil4 fnt2">14</text>
  </g>
  <g id="_499334776">
   <circle class="fil3 str0" cx="296" cy="310" r="12"/>
   <text x="288" y="317"  class="fil4 fnt2">14</text>
  </g>
  <g id="_499334080">
   <circle class="fil3 str0" cx="296" cy="347" r="12"/>
   <text x="288" y="354"  class="fil4 fnt2">14</text>
  </g>
  <g id="_499333384">
   <circle class="fil3 str0" cx="296" cy="384" r="12"/>
   <text x="288" y="391"  class="fil4 fnt2">14</text>
  </g>
  <g id="_499332688">
   <circle class="fil3 str0" cx="296" cy="421" r="12"/>
   <text x="288" y="428"  class="fil4 fnt2">14</text>
  </g>
  <g id="_499331992">
   <circle class="fil3 str0" cx="296" cy="458" r="12"/>
   <text x="288" y="464"  class="fil4 fnt2">14</text>
  </g>
  <g id="_499331296">
   <circle class="fil3 str0" cx="328" cy="237" r="12"/>
   <text x="319" y="243"  class="fil4 fnt2">13</text>
  </g>
  <g id="_499330600">
   <circle class="fil3 str0" cx="328" cy="273" r="12"/>
   <text x="319" y="280"  class="fil4 fnt2">13</text>
  </g>
  <g id="_499329904">
   <circle class="fil3 str0" cx="328" cy="310" r="12"/>
   <text x="319" y="317"  class="fil4 fnt2">13</text>
  </g>
  <g id="_499329208">
   <circle class="fil3 str0" cx="328" cy="347" r="12"/>
   <text x="319" y="354"  class="fil4 fnt2">13</text>
  </g>
  <g id="_499328512">
   <circle class="fil3 str0" cx="328" cy="384" r="12"/>
   <text x="319" y="391"  class="fil4 fnt2">13</text>
  </g>
  <g id="_499327816">
   <circle class="fil3 str0" cx="328" cy="421" r="12"/>
   <text x="319" y="428"  class="fil4 fnt2">13</text>
  </g>
  <g id="_499327120">
   <circle class="fil3 str0" cx="328" cy="458" r="12"/>
   <text x="319" y="464"  class="fil4 fnt2">13</text>
  </g>
  <g id="_499326424">
   <circle class="fil3 str0" cx="359" cy="237" r="12"/>
   <text x="350" y="244"  class="fil4 fnt2">12</text>
  </g>
  <g id="_499325728">
   <circle class="fil3 str0" cx="359" cy="273" r="12"/>
   <text x="350" y="280"  class="fil4 fnt2">12</text>
  </g>
  <g id="_499325032">
   <circle class="fil3 str0" cx="359" cy="310" r="12"/>
   <text x="350" y="317"  class="fil4 fnt2">12</text>
  </g>
  <g id="_499324336">
   <circle class="fil3 str0" cx="359" cy="347" r="12"/>
   <text x="350" y="354"  class="fil4 fnt2">12</text>
  </g>
  <g id="_499323640">
   <circle class="fil3 str0" cx="359" cy="384" r="12"/>
   <text x="350" y="391"  class="fil4 fnt2">12</text>
  </g>
  <g id="_499322944">
   <circle class="fil3 str0" cx="359" cy="421" r="12"/>
   <text x="350" y="428"  class="fil4 fnt2">12</text>
  </g>
  <g id="_499322248">
   <circle class="fil3 str0" cx="359" cy="458" r="12"/>
   <text x="350" y="465"  class="fil4 fnt2">12</text>
  </g>
  <g id="_499321552">
   <circle class="fil3 str0" cx="390" cy="237" r="12"/>
   <text x="381" y="243"  class="fil4 fnt2">11</text>
  </g>
  <g id="_499320856">
   <circle class="fil3 str0" cx="390" cy="273" r="12"/>
   <text x="381" y="280"  class="fil4 fnt2">11</text>
  </g>
  <g id="_572513712">
   <circle class="fil3 str0" cx="390" cy="310" r="12"/>
   <text x="381" y="317"  class="fil4 fnt2">11</text>
  </g>
  <g id="_572513016">
   <circle class="fil3 str0" cx="390" cy="347" r="12"/>
   <text x="381" y="354"  class="fil4 fnt2">11</text>
  </g>
  <g id="_572512320">
   <circle class="fil3 str0" cx="390" cy="384" r="12"/>
   <text x="381" y="391"  class="fil4 fnt2">11</text>
  </g>
  <g id="_572511624">
   <circle class="fil3 str0" cx="390" cy="421" r="12"/>
   <text x="381" y="428"  class="fil4 fnt2">11</text>
  </g>
  <g id="_572510928">
   <circle class="fil3 str0" cx="390" cy="458" r="12"/>
   <text x="381" y="464"  class="fil4 fnt2">11</text>
  </g>
  <g id="_572510232">
   <circle class="fil3 str0" cx="421" cy="237" r="12"/>
   <text x="412" y="243"  class="fil4 fnt2">10</text>
  </g>
  <g id="_572509536">
   <circle class="fil3 str0" cx="421" cy="273" r="12"/>
   <text x="412" y="280"  class="fil4 fnt2">10</text>
  </g>
  <g id="_572508840">
   <circle class="fil3 str0" cx="421" cy="310" r="12"/>
   <text x="412" y="317"  class="fil4 fnt2">10</text>
  </g>
  <g id="_572508144">
   <circle class="fil3 str0" cx="421" cy="347" r="12"/>
   <text x="412" y="354"  class="fil4 fnt2">10</text>
  </g>
  <g id="_572507448">
   <circle class="fil3 str0" cx="421" cy="384" r="12"/>
   <text x="412" y="391"  class="fil4 fnt2">10</text>
  </g>
  <g id="_572506752">
   <circle class="fil3 str0" cx="421" cy="421" r="12"/>
   <text x="412" y="428"  class="fil4 fnt2">10</text>
  </g>
  <g id="_572506056">
   <circle class="fil3 str0" cx="421" cy="458" r="12"/>
   <text x="412" y="464"  class="fil4 fnt2">10</text>
  </g>
  <g id="_572505360">
   <circle class="fil3 str0" cx="452" cy="237" r="12"/>
   <text x="443" y="243"  class="fil4 fnt2">09</text>
  </g>
  <g id="_572504664">
   <circle class="fil3 str0" cx="452" cy="273" r="12"/>
   <text x="443" y="280"  class="fil4 fnt2">09</text>
  </g>
  <g id="_572503968">
   <circle class="fil3 str0" cx="452" cy="310" r="12"/>
   <text x="443" y="317"  class="fil4 fnt2">09</text>
  </g>
  <g id="_572503272">
   <circle class="fil3 str0" cx="452" cy="347" r="12"/>
   <text x="443" y="354"  class="fil4 fnt2">09</text>
  </g>
  <g id="_572502576">
   <circle class="fil3 str0" cx="452" cy="384" r="12"/>
   <text x="443" y="391"  class="fil4 fnt2">09</text>
  </g>
  <g id="_572501880">
   <circle class="fil3 str0" cx="452" cy="421" r="12"/>
   <text x="443" y="428"  class="fil4 fnt2">09</text>
  </g>
  <g id="_572501184">
   <circle class="fil3 str0" cx="452" cy="458" r="12"/>
   <text x="443" y="464"  class="fil4 fnt2">09</text>
  </g>
  <g id="_572500488">
   <circle class="fil3 str0" cx="483" cy="237" r="12"/>
   <text x="474" y="244"  class="fil4 fnt2">08</text>
  </g>
  <g id="_572499792">
   <circle class="fil3 str0" cx="483" cy="273" r="12"/>
   <text x="474" y="280"  class="fil4 fnt2">08</text>
  </g>
  <g id="_572499096">
   <circle class="fil3 str0" cx="483" cy="310" r="12"/>
   <text x="474" y="317"  class="fil4 fnt2">08</text>
  </g>
  <g id="_572498400">
   <circle class="fil3 str0" cx="483" cy="347" r="12"/>
   <text x="474" y="354"  class="fil4 fnt2">08</text>
  </g>
  <g id="_572497704">
   <circle class="fil3 str0" cx="483" cy="384" r="12"/>
   <text x="474" y="391"  class="fil4 fnt2">08</text>
  </g>
  <g id="_572497008">
   <circle class="fil3 str0" cx="483" cy="421" r="12"/>
   <text x="474" y="428"  class="fil4 fnt2">08</text>
  </g>
  <g id="_572496312">
   <circle class="fil3 str0" cx="483" cy="458" r="12"/>
   <text x="474" y="465"  class="fil4 fnt2">08</text>
  </g>
  <g id="_572495616">
   <circle class="fil3 str0" cx="514" cy="237" r="12"/>
   <text x="505" y="244"  class="fil4 fnt2">07</text>
  </g>
  <g id="_572494920">
   <circle class="fil3 str0" cx="514" cy="273" r="12"/>
   <text x="505" y="280"  class="fil4 fnt2">07</text>
  </g>
  <g id="_572494224">
   <circle class="fil3 str0" cx="514" cy="310" r="12"/>
   <text x="505" y="317"  class="fil4 fnt2">07</text>
  </g>
  <g id="_572493528">
   <circle class="fil3 str0" cx="514" cy="347" r="12"/>
   <text x="505" y="354"  class="fil4 fnt2">07</text>
  </g>
  <g id="_572492832">
   <circle class="fil3 str0" cx="514" cy="384" r="12"/>
   <text x="505" y="391"  class="fil4 fnt2">07</text>
  </g>
  <g id="_572492136">
   <circle class="fil3 str0" cx="514" cy="421" r="12"/>
   <text x="505" y="428"  class="fil4 fnt2">07</text>
  </g>
  <g id="_572491440">
   <circle class="fil3 str0" cx="514" cy="458" r="12"/>
   <text x="505" y="465"  class="fil4 fnt2">07</text>
  </g>
  <g id="_572490744">
   <circle class="fil3 str0" cx="545" cy="237" r="12"/>
   <text x="536" y="243"  class="fil4 fnt2">06</text>
  </g>
  <g id="_572490048">
   <circle class="fil3 str0" cx="545" cy="273" r="12"/>
   <text x="536" y="280"  class="fil4 fnt2">06</text>
  </g>
  <g id="_572489352">
   <circle class="fil3 str0" cx="545" cy="310" r="12"/>
   <text x="536" y="317"  class="fil4 fnt2">06</text>
  </g>
  <g id="_572488656">
   <circle class="fil3 str0" cx="545" cy="347" r="12"/>
   <text x="536" y="354"  class="fil4 fnt2">06</text>
  </g>
  <g id="_572487960">
   <circle class="fil3 str0" cx="545" cy="384" r="12"/>
   <text x="536" y="391"  class="fil4 fnt2">06</text>
  </g>
  <g id="_572487264">
   <circle class="fil3 str0" cx="545" cy="421" r="12"/>
   <text x="536" y="428"  class="fil4 fnt2">06</text>
  </g>
  <g id="_572486568">
   <circle class="fil3 str0" cx="545" cy="458" r="12"/>
   <text x="536" y="464"  class="fil4 fnt2">06</text>
  </g>
  <g id="_572485872">
   <circle class="fil3 str0" cx="576" cy="237" r="12"/>
   <text x="567" y="244"  class="fil4 fnt2">05</text>
  </g>
  <g id="_572485176">
   <circle class="fil3 str0" cx="576" cy="273" r="12"/>
   <text x="567" y="280"  class="fil4 fnt2">05</text>
  </g>
  <g id="_572484480">
   <circle class="fil3 str0" cx="576" cy="310" r="12"/>
   <text x="567" y="317"  class="fil4 fnt2">05</text>
  </g>
  <g id="_572483784">
   <circle class="fil3 str0" cx="576" cy="347" r="12"/>
   <text x="567" y="354"  class="fil4 fnt2">05</text>
  </g>
  <g id="_572483088">
   <circle class="fil3 str0" cx="576" cy="384" r="12"/>
   <text x="567" y="391"  class="fil4 fnt2">05</text>
  </g>
  <g id="_572482392">
   <circle class="fil3 str0" cx="576" cy="421" r="12"/>
   <text x="567" y="428"  class="fil4 fnt2">05</text>
  </g>
  <g id="_572481696">
   <circle class="fil3 str0" cx="576" cy="458" r="12"/>
   <text x="567" y="465"  class="fil4 fnt2">05</text>
  </g>
  <g id="_574074296">
   <circle class="fil3 str0" cx="607" cy="237" r="12"/>
   <text x="598" y="243"  class="fil4 fnt2">04</text>
  </g>
  <g id="_574073600">
   <circle class="fil3 str0" cx="607" cy="273" r="12"/>
   <text x="598" y="280"  class="fil4 fnt2">04</text>
  </g>
  <g id="_574072904">
   <circle class="fil3 str0" cx="607" cy="310" r="12"/>
   <text x="598" y="317"  class="fil4 fnt2">04</text>
  </g>
  <g id="_574072208">
   <circle class="fil3 str0" cx="607" cy="347" r="12"/>
   <text x="598" y="354"  class="fil4 fnt2">04</text>
  </g>
  <g id="_574071512">
   <circle class="fil3 str0" cx="607" cy="384" r="12"/>
   <text x="598" y="391"  class="fil4 fnt2">04</text>
  </g>
  <g id="_574070816">
   <circle class="fil3 str0" cx="607" cy="421" r="12"/>
   <text x="598" y="428"  class="fil4 fnt2">04</text>
  </g>
  <g id="_574070120">
   <circle class="fil3 str0" cx="607" cy="458" r="12"/>
   <text x="598" y="464"  class="fil4 fnt2">04</text>
  </g>
  <g id="_574069424">
   <circle class="fil3 str0" cx="638" cy="237" r="12"/>
   <text x="629" y="243"  class="fil4 fnt2">03</text>
  </g>
  <g id="_574068728">
   <circle class="fil3 str0" cx="638" cy="273" r="12"/>
   <text x="629" y="280"  class="fil4 fnt2">03</text>
  </g>
  <g id="_574068032">
   <circle class="fil3 str0" cx="638" cy="310" r="12"/>
   <text x="629" y="317"  class="fil4 fnt2">03</text>
  </g>
  <g id="_574067336">
   <circle class="fil3 str0" cx="638" cy="347" r="12"/>
   <text x="629" y="354"  class="fil4 fnt2">03</text>
  </g>
  <g id="_574066640">
   <circle class="fil3 str0" cx="638" cy="384" r="12"/>
   <text x="629" y="391"  class="fil4 fnt2">03</text>
  </g>
  <g id="_574065944">
   <circle class="fil3 str0" cx="638" cy="421" r="12"/>
   <text x="629" y="428"  class="fil4 fnt2">03</text>
  </g>
  <g id="_574065248">
   <circle class="fil3 str0" cx="638" cy="458" r="12"/>
   <text x="629" y="464"  class="fil4 fnt2">03</text>
  </g>
  <g id="_574064552">
   <circle class="fil3 str0" cx="669" cy="237" r="12"/>
   <text x="660" y="244"  class="fil4 fnt2">02</text>
  </g>
  <g id="_574063856">
   <circle class="fil3 str0" cx="669" cy="273" r="12"/>
   <text x="660" y="280"  class="fil4 fnt2">02</text>
  </g>
  <g id="_574063160">
   <circle class="fil3 str0" cx="669" cy="310" r="12"/>
   <text x="660" y="317"  class="fil4 fnt2">02</text>
  </g>
  <g id="_574062464">
   <circle class="fil3 str0" cx="669" cy="347" r="12"/>
   <text x="660" y="354"  class="fil4 fnt2">02</text>
  </g>
  <g id="_574061768">
   <circle class="fil3 str0" cx="669" cy="384" r="12"/>
   <text x="660" y="391"  class="fil4 fnt2">02</text>
  </g>
  <g id="_574061072">
   <circle class="fil3 str0" cx="669" cy="421" r="12"/>
   <text x="660" y="428"  class="fil4 fnt2">02</text>
  </g>
  <g id="_574060376">
   <circle class="fil3 str0" cx="669" cy="458" r="12"/>
   <text x="660" y="465"  class="fil4 fnt2">02</text>
  </g>
  <g id="_574059680">
   <circle class="fil3 str0" cx="700" cy="237" r="12"/>
   <text x="691" y="243"  class="fil4 fnt2">01</text>
  </g>
  <g id="_574058984">
   <circle class="fil3 str0" cx="700" cy="273" r="12"/>
   <text x="691" y="280"  class="fil4 fnt2">01</text>
  </g>
  <g id="_574058288">
   <circle class="fil3 str0" cx="700" cy="310" r="12"/>
   <text x="691" y="317"  class="fil4 fnt2">01</text>
  </g>
  <g id="_574057592">
   <circle class="fil3 str0" cx="700" cy="347" r="12"/>
   <text x="691" y="354"  class="fil4 fnt2">01</text>
  </g>
  <g id="_574056896">
   <circle class="fil3 str0" cx="700" cy="384" r="12"/>
   <text x="691" y="391"  class="fil4 fnt2">01</text>
  </g>
  <g id="_574056200">
   <circle class="fil3 str0" cx="700" cy="421" r="12"/>
   <text x="691" y="428"  class="fil4 fnt2">01</text>
  </g>
  <g id="_574055504">
   <circle class="fil3 str0" cx="700" cy="458" r="12"/>
   <text x="691" y="464"  class="fil4 fnt2">01</text>
  </g>
  <g id="_574054808">
   <circle class="fil3 str0" cx="203" cy="200" r="12"/>
   <text x="195" y="207"  class="fil4 fnt2">17</text>
  </g>
  <g id="_574054112">
   <circle class="fil3 str0" cx="203" cy="126" r="12"/>
   <text x="195" y="133"  class="fil4 fnt2">17</text>
  </g>
  <g id="_574053416">
   <circle class="fil3 str0" cx="234" cy="200" r="12"/>
   <text x="226" y="207"  class="fil4 fnt2">16</text>
  </g>
  <g id="_574052720">
   <circle class="fil3 str0" cx="234" cy="126" r="12"/>
   <text x="226" y="133"  class="fil4 fnt2">16</text>
  </g>
  <g id="_574052024">
   <circle class="fil3 str0" cx="265" cy="200" r="12"/>
   <text x="257" y="207"  class="fil4 fnt2">15</text>
  </g>
  <g id="_574051328">
   <circle class="fil3 str0" cx="265" cy="126" r="12"/>
   <text x="257" y="133"  class="fil4 fnt2">15</text>
  </g>
  <g id="_574050632">
   <circle class="fil3 str0" cx="296" cy="200" r="12"/>
   <text x="288" y="207"  class="fil4 fnt2">14</text>
  </g>
  <g id="_574049936">
   <circle class="fil3 str0" cx="296" cy="126" r="12"/>
   <text x="288" y="133"  class="fil4 fnt2">14</text>
  </g>
  <g id="_574049240">
   <circle class="fil3 str0" cx="328" cy="200" r="12"/>
   <text x="319" y="207"  class="fil4 fnt2">13</text>
  </g>
  <g id="_574048544">
   <circle class="fil3 str0" cx="328" cy="126" r="12"/>
   <text x="319" y="133"  class="fil4 fnt2">13</text>
  </g>
  <g id="_574047848">
   <circle class="fil3 str0" cx="359" cy="200" r="12"/>
   <text x="350" y="207"  class="fil4 fnt2">12</text>
  </g>
  <g id="_574047152">
   <circle class="fil3 str0" cx="359" cy="126" r="12"/>
   <text x="350" y="133"  class="fil4 fnt2">12</text>
  </g>
  <g id="_574046456">
   <circle class="fil3 str0" cx="390" cy="200" r="12"/>
   <text x="381" y="207"  class="fil4 fnt2">11</text>
  </g>
  <g id="_574045760">
   <circle class="fil3 str0" cx="390" cy="126" r="12"/>
   <text x="381" y="133"  class="fil4 fnt2">11</text>
  </g>
  <g id="_574045064">
   <circle class="fil3 str0" cx="421" cy="200" r="12"/>
   <text x="412" y="207"  class="fil4 fnt2">10</text>
  </g>
  <g id="_574044368">
   <circle class="fil3 str0" cx="421" cy="126" r="12"/>
   <text x="412" y="133"  class="fil4 fnt2">10</text>
  </g>
  <g id="_574043672">
   <circle class="fil3 str0" cx="452" cy="200" r="12"/>
   <text x="443" y="207"  class="fil4 fnt2">09</text>
  </g>
  <g id="_574042976">
   <circle class="fil3 str0" cx="452" cy="126" r="12"/>
   <text x="443" y="133"  class="fil4 fnt2">09</text>
  </g>
  <g id="_574042280">
   <circle class="fil3 str0" cx="483" cy="200" r="12"/>
   <text x="474" y="207"  class="fil4 fnt2">08</text>
  </g>
  <g id="_558369544">
   <circle class="fil3 str0" cx="483" cy="126" r="12"/>
   <text x="474" y="133"  class="fil4 fnt2">08</text>
  </g>
  <g id="_558368848">
   <circle class="fil3 str0" cx="514" cy="200" r="12"/>
   <text x="505" y="207"  class="fil4 fnt2">07</text>
  </g>
  <g id="_558368152">
   <circle class="fil3 str0" cx="514" cy="126" r="12"/>
   <text x="505" y="133"  class="fil4 fnt2">07</text>
  </g>
  <g id="_558367456">
   <circle class="fil3 str0" cx="545" cy="200" r="12"/>
   <text x="536" y="207"  class="fil4 fnt2">06</text>
  </g>
  <g id="_558366760">
   <circle class="fil3 str0" cx="576" cy="200" r="12"/>
   <text x="567" y="207"  class="fil4 fnt2">05</text>
  </g>
  <g id="_558366064">
   <circle class="fil3 str0" cx="607" cy="200" r="12"/>
   <text x="598" y="207"  class="fil4 fnt2">04</text>
  </g>
  <g id="_558365368">
   <circle class="fil3 str0" cx="638" cy="200" r="12"/>
   <text x="629" y="207"  class="fil4 fnt2">03</text>
  </g>
  <g id="_558364672">
   <circle class="fil3 str0" cx="669" cy="200" r="12"/>
   <text x="660" y="207"  class="fil4 fnt2">02</text>
  </g>
  <g id="_558363976">
   <circle class="fil3 str0" cx="700" cy="200" r="12"/>
   <text x="691" y="207"  class="fil4 fnt2">01</text>
  </g>
  <g id="_558363280">
   <circle class="fil3 str0" cx="203" cy="163" r="12"/>
   <text x="195" y="170"  class="fil4 fnt2">17</text>
  </g>
  <g id="_558362584">
   <circle class="fil3 str0" cx="203" cy="89" r="12"/>
   <text x="195" y="96"  class="fil4 fnt2">17</text>
  </g>
  <g id="_558361888">
   <circle class="fil3 str0" cx="234" cy="163" r="12"/>
   <text x="226" y="170"  class="fil4 fnt2">16</text>
  </g>
  <g id="_558361192">
   <circle class="fil3 str0" cx="234" cy="89" r="12"/>
   <text x="226" y="96"  class="fil4 fnt2">16</text>
  </g>
  <g id="_558360496">
   <circle class="fil3 str0" cx="265" cy="163" r="12"/>
   <text x="257" y="170"  class="fil4 fnt2">15</text>
  </g>
  <g id="_558359800">
   <circle class="fil3 str0" cx="265" cy="89" r="12"/>
   <text x="257" y="96"  class="fil4 fnt2">15</text>
  </g>
  <g id="_558359104">
   <circle class="fil3 str0" cx="296" cy="163" r="12"/>
   <text x="288" y="170"  class="fil4 fnt2">14</text>
  </g>
  <g id="_558358408">
   <circle class="fil3 str0" cx="296" cy="89" r="12"/>
   <text x="288" y="96"  class="fil4 fnt2">14</text>
  </g>
  <g id="_558357712">
   <circle class="fil3 str0" cx="328" cy="163" r="12"/>
   <text x="319" y="170"  class="fil4 fnt2">13</text>
  </g>
  <g id="_558357016">
   <circle class="fil3 str0" cx="328" cy="89" r="12"/>
   <text x="319" y="96"  class="fil4 fnt2">13</text>
  </g>
  <g id="_558356320">
   <circle class="fil3 str0" cx="359" cy="163" r="12"/>
   <text x="350" y="170"  class="fil4 fnt2">12</text>
  </g>
  <g id="_558355624">
   <circle class="fil3 str0" cx="359" cy="89" r="12"/>
   <text x="350" y="96"  class="fil4 fnt2">12</text>
  </g>
  <g id="_558354928">
   <circle class="fil3 str0" cx="390" cy="163" r="12"/>
   <text x="381" y="170"  class="fil4 fnt2">11</text>
  </g>
  <g id="_558354232">
   <circle class="fil3 str0" cx="390" cy="89" r="12"/>
   <text x="381" y="96"  class="fil4 fnt2">11</text>
  </g>
  <g id="_558353536">
   <circle class="fil3 str0" cx="421" cy="163" r="12"/>
   <text x="412" y="170"  class="fil4 fnt2">10</text>
  </g>
  <g id="_558352840">
   <circle class="fil3 str0" cx="421" cy="89" r="12"/>
   <text x="412" y="96"  class="fil4 fnt2">10</text>
  </g>
  <g id="_558352144">
   <circle class="fil3 str0" cx="452" cy="163" r="12"/>
   <text x="443" y="170"  class="fil4 fnt2">09</text>
  </g>
  <g id="_558351448">
   <circle class="fil3 str0" cx="452" cy="89" r="12"/>
   <text x="443" y="96"  class="fil4 fnt2">09</text>
  </g>
  <g id="_558350752">
   <circle class="fil3 str0" cx="483" cy="163" r="12"/>
   <text x="474" y="170"  class="fil4 fnt2">08</text>
  </g>
  <g id="_558350056">
   <circle class="fil3 str0" cx="483" cy="89" r="12"/>
   <text x="474" y="96"  class="fil4 fnt2">08</text>
  </g>
  <g id="_558349360">
   <circle class="fil3 str0" cx="514" cy="163" r="12"/>
   <text x="505" y="170"  class="fil4 fnt2">07</text>
  </g>
  <g id="_558348664">
   <circle class="fil3 str0" cx="514" cy="89" r="12"/>
   <text x="505" y="96"  class="fil4 fnt2">07</text>
  </g>
  <g id="_558347968">
   <circle class="fil3 str0" cx="545" cy="163" r="12"/>
   <text x="536" y="170"  class="fil4 fnt2">06</text>
  </g>
  <g id="_558347272">
   <circle class="fil3 str0" cx="576" cy="163" r="12"/>
   <text x="567" y="170"  class="fil4 fnt2">05</text>
  </g>
  <g id="_558346576">
   <circle class="fil3 str0" cx="607" cy="163" r="12"/>
   <text x="598" y="170"  class="fil4 fnt2">04</text>
  </g>
  <g id="_558345880">
   <circle class="fil3 str0" cx="638" cy="163" r="12"/>
   <text x="629" y="170"  class="fil4 fnt2">03</text>
  </g>
  <g id="_558345184">
   <circle class="fil3 str0" cx="669" cy="163" r="12"/>
   <text x="660" y="170"  class="fil4 fnt2">02</text>
  </g>
  <g id="_558344488">
   <circle class="fil3 str0" cx="700" cy="163" r="12"/>
   <text x="691" y="170"  class="fil4 fnt2">01</text>
  </g>
  <g id="_558343792">
   <circle class="fil3 str0" cx="545" cy="126" r="12"/>
   <text x="536" y="133"  class="fil4 fnt2">06</text>
  </g>
  <g id="_558343096">
   <circle class="fil3 str0" cx="576" cy="126" r="12"/>
   <text x="567" y="133"  class="fil4 fnt2">05</text>
  </g>
  <g id="_558342400">
   <circle class="fil3 str0" cx="607" cy="126" r="12"/>
   <text x="598" y="133"  class="fil4 fnt2">04</text>
  </g>
  <g id="_558341704">
   <circle class="fil3 str0" cx="638" cy="126" r="12"/>
   <text x="629" y="133"  class="fil4 fnt2">03</text>
  </g>
  <g id="_558341008">
   <circle class="fil3 str0" cx="669" cy="126" r="12"/>
   <text x="660" y="133"  class="fil4 fnt2">02</text>
  </g>
  <g id="_558340312">
   <circle class="fil3 str0" cx="700" cy="126" r="12"/>
   <text x="691" y="133"  class="fil4 fnt2">01</text>
  </g>
  <g id="_558339616">
   <circle class="fil3 str0" cx="545" cy="89" r="12"/>
   <text x="536" y="96"  class="fil4 fnt2">06</text>
  </g>
  <g id="_558338920">
   <circle class="fil3 str0" cx="576" cy="89" r="12"/>
   <text x="567" y="96"  class="fil4 fnt2">05</text>
  </g>
  <g id="_558338224">
   <circle class="fil3 str0" cx="607" cy="89" r="12"/>
   <text x="598" y="96"  class="fil4 fnt2">04</text>
  </g>
  <g id="_558337528">
   <circle class="fil3 str0" cx="638" cy="89" r="12"/>
   <text x="629" y="96"  class="fil4 fnt2">03</text>
  </g>
  <g id="_573234680">
   <circle class="fil3 str0" cx="669" cy="89" r="12"/>
   <text x="660" y="96"  class="fil4 fnt2">02</text>
  </g>
  <g id="_573233984">
   <circle class="fil3 str0" cx="700" cy="89" r="12"/>
   <text x="691" y="96"  class="fil4 fnt2">01</text>
  </g>
  <text x="202" y="619"  class="fil4 fnt3">Cadeira especial - Tribuna</text>
  <text x="372" y="44"  class="fil4 fnt4">CAMPO</text>
 </g>
</svg>
